<svg width="75" height="75" viewBox="0 0 75 75" fill="none" xmlns="http://www.w3.org/2000/svg">
<g clip-path="url(#clip0_14_108)">
<path d="M74.7455 33.7503C74.3787 33.3398 73.7496 33.309 73.3421 33.6748L71.3919 35.4251L60.8164 24.939C60.4268 24.5534 59.7986 24.5544 59.4109 24.945C59.0243 25.3346 59.0263 25.9638 59.4169 26.3504L69.911 36.755L64.7156 41.4176L47.4369 23.9163L64.6122 7.66827C65.0108 7.29057 65.0287 6.66141 64.651 6.26284C64.2723 5.86327 63.6441 5.84836 63.2456 6.22308L45.3327 23.1698C45.1389 23.3537 45.0266 23.6071 45.0216 23.8745C45.0167 24.1419 45.121 24.3993 45.3079 24.5902L46.8992 26.2023L43.3935 29.87L36.6317 29.1494C36.3326 29.1136 36.0394 29.2209 35.8266 29.4317L33.0784 32.1561L27.9695 27.1098L29.691 25.3664C29.8779 25.1766 29.9823 24.9182 29.9773 24.6508C29.9723 24.3834 29.861 24.13 29.6662 23.9461L11.7543 7.00034C11.3568 6.62463 10.7266 6.63954 10.3489 7.0401C9.9712 7.43867 9.98909 8.06784 10.3877 8.44554L22.475 19.8789L4.77386 37.248L1.65785 34.4521C1.25033 34.0863 0.621168 34.1191 0.254403 34.5276C-0.112362 34.9361 -0.0785681 35.5643 0.329943 35.9311L9.66208 44.307C9.85093 44.477 10.0895 44.5615 10.326 44.5615C10.5835 44.5615 10.8399 44.4621 11.0337 44.2663L12.7244 42.5537L22.0188 51.7208L20.3112 53.4573C19.9285 53.8469 19.9305 54.4711 20.3172 54.8567L23.8019 58.3415C23.8019 58.3415 23.8039 58.3425 23.8039 58.3435C23.8039 58.3445 23.8049 58.3455 23.8059 58.3455L27.2917 61.7915L30.7724 65.2733L34.2572 68.758C34.451 68.9518 34.7055 69.0493 34.9599 69.0493C35.2144 69.0493 35.4688 68.9518 35.6627 68.758L37.4657 66.955L39.2985 68.763C39.4913 68.9538 39.7438 69.0493 39.9962 69.0493C40.2507 69.0493 40.5051 68.9518 40.699 68.758L43.481 65.976L43.8915 66.3865C44.0853 66.5803 44.3398 66.6777 44.5942 66.6777C44.8487 66.6777 45.1031 66.5803 45.2969 66.3865L48.079 63.6044L48.4895 64.0149C48.6833 64.2087 48.9378 64.3062 49.1922 64.3062C49.4467 64.3062 49.7011 64.2087 49.8949 64.0149L52.677 61.2329L53.0865 61.6424C53.2803 61.8362 53.5347 61.9336 53.7892 61.9336C54.0436 61.9336 54.2981 61.8362 54.4919 61.6424L57.9767 58.1576C58.3653 57.769 58.3653 57.1408 57.9767 56.7522L52.8022 51.5777L62.1542 41.6552L63.9672 43.492C64.161 43.6888 64.4174 43.7872 64.6749 43.7872C64.9114 43.7872 65.15 43.7027 65.3388 43.5327L74.671 35.1568C75.0785 34.787 75.1123 34.1589 74.7455 33.7503ZM24.4758 34.304C24.4758 36.7024 22.5247 38.6525 20.1273 38.6525C19.1731 38.6525 18.2567 38.3384 17.5093 37.7738L23.5972 31.6849C24.1617 32.4334 24.4758 33.3498 24.4758 34.304ZM25.0066 30.2755L26.6655 28.6166L27.562 29.5022L25.7351 31.3728C25.5324 30.9842 25.2889 30.6164 25.0066 30.2755ZM10.2843 42.1939L6.25583 38.5779L23.9202 21.2455L27.564 24.6925L10.2843 42.1939ZM16.0998 39.1832C16.4517 39.4745 16.8314 39.7239 17.2349 39.9317C16.9199 40.2557 16.5948 40.5927 16.2678 40.9306C15.8722 41.3391 15.4866 41.7357 15.1139 42.1184L14.1328 41.1512L16.0998 39.1832ZM23.4342 53.1153L25.5234 55.1758L24.4967 56.2244L22.4193 54.1471L23.4342 53.1153ZM27.9854 59.6823L25.9091 57.6298L26.9458 56.5792L29.0311 58.6357L27.9854 59.6823ZM30.4464 60.0322L32.5397 62.0966L31.4732 63.1631L29.3938 61.0838L30.4464 60.0322ZM34.9589 66.6479L32.8796 64.5686L33.956 63.4921L36.0493 65.5575L34.9589 66.6479ZM53.7882 59.5312L53.3787 59.1217L49.3661 55.1092C49.3661 55.1092 49.3652 55.1092 49.3652 55.1082L48.1456 53.8886C47.757 53.5 47.1288 53.5 46.7402 53.8886C46.3515 54.2773 46.3515 54.9054 46.7402 55.2941L51.2715 59.8245L49.1922 61.9038L43.5486 56.2602C43.16 55.8715 42.5318 55.8715 42.1432 56.2602C41.7545 56.6488 41.7545 57.277 42.1432 57.6656L43.3647 58.8872L46.6736 62.197L44.5942 64.2763L41.3311 61.0142L40.1712 59.8543C40.1712 59.8543 40.1702 59.8543 40.1702 59.8533L38.9506 58.6337C38.562 58.2451 37.9338 58.2451 37.5452 58.6337C37.1565 59.0224 37.1565 59.6505 37.5452 60.0392L39.8263 62.3203L42.0756 64.5695L39.9913 66.6538L16.5292 43.5139C16.9059 43.1272 17.2966 42.7247 17.6951 42.3122C18.2806 41.7079 18.8571 41.1125 19.3699 40.5917C19.6204 40.6215 19.8719 40.6404 20.1273 40.6404C23.622 40.6404 26.4637 37.7977 26.4637 34.304C26.4637 34.0426 26.4438 33.7841 26.412 33.5277L28.9774 30.8997L31.668 33.5565L22.2852 42.8608C22.0834 43.0606 21.977 43.3369 21.9929 43.6212C22.0088 43.9055 22.144 44.1679 22.3667 44.3448C22.5983 44.5307 28.0411 48.6525 37.4915 39.0749L55.8675 57.4519L53.7882 59.5312ZM51.3948 50.1693L38.1803 36.9538C37.9905 36.764 37.7549 36.6586 37.4617 36.6626C37.1923 36.6666 36.9379 36.7799 36.753 36.9757C30.6562 43.4632 26.572 43.66 24.7303 43.2346L36.8902 31.176L41.6581 31.6839L40.9425 32.4334C40.5628 32.83 40.5777 33.4591 40.9733 33.8388C41.3699 34.2175 41.998 34.2046 42.3787 33.807L48.0919 27.8304L60.6305 40.369L51.3948 50.1693ZM53.1332 21.6342C53.1332 23.3467 54.5267 24.7402 56.2393 24.7402C57.9518 24.7402 59.3453 23.3467 59.3453 21.6342C59.3453 19.9216 57.9518 18.5281 56.2393 18.5281C54.5267 18.5281 53.1332 19.9216 53.1332 21.6342ZM57.3575 21.6342C57.3575 22.2504 56.8555 22.7524 56.2393 22.7524C55.623 22.7524 55.1211 22.2504 55.1211 21.6342C55.1211 21.0179 55.623 20.516 56.2393 20.516C56.8555 20.516 57.3575 21.0179 57.3575 21.6342Z" fill="#4EA0EC"/>
</g>
<defs>
<clipPath id="clip0_14_108">
<rect width="75" height="75" fill="white"/>
</clipPath>
</defs>
</svg>
