<svg width="151" height="155" viewBox="0 0 151 155" fill="none" xmlns="http://www.w3.org/2000/svg">
<g filter="url(#filter0_d_23_3)">
<rect x="29.1572" y="25.0083" width="90.3798" height="94.3033" rx="10" fill="url(#paint0_linear_23_3)" style="mix-blend-mode:luminosity" shape-rendering="crispEdges"/>
</g>
<path d="M91.5 55H58.5C57.6716 55 57 55.6716 57 56.5V65.5V89.5C57 90.3284 57.6716 91 58.5 91H91.5C92.3284 91 92.9999 90.3284 92.9999 89.5V65.5V56.5C93 55.6716 92.3284 55 91.5 55ZM60 58H90V64H60V58ZM90 88H60V67H90V88H90Z" fill="white"/>
<path d="M63 59.5C62.172 59.5 61.5 60.172 61.5 61C61.5 61.828 62.172 62.5 63 62.5C63.828 62.5 64.5 61.828 64.5 61C64.5 60.172 63.828 59.5 63 59.5Z" fill="white"/>
<path d="M67.5 59.5C66.672 59.5 66 60.172 66 61C66 61.828 66.672 62.5 67.5 62.5C68.328 62.5 69 61.828 69 61C69 60.172 68.328 59.5 67.5 59.5Z" fill="white"/>
<path d="M72 59.5C71.172 59.5 70.5 60.172 70.5 61C70.5 61.828 71.172 62.5 72 62.5C72.828 62.5 73.5 61.828 73.5 61C73.5 60.172 72.828 59.5 72 59.5Z" fill="white"/>
<path d="M67.2721 79.9924L68.2186 80.1378C68.4784 80.1777 68.6074 80.4735 68.46 80.6911L67.9451 81.4522C67.5424 82.0473 67.6184 82.8443 68.1261 83.3527L69.3486 84.5767C69.8718 85.1005 70.6987 85.1643 71.2959 84.7271L72.0685 84.1615C72.2823 84.0048 72.5833 84.1228 72.633 84.3809L72.8051 85.2817C72.9401 85.9888 73.5585 86.5002 74.2784 86.5002H76.0094C76.7501 86.5002 77.38 85.9595 77.4921 85.2273L77.5941 84.5613C77.635 84.297 77.9419 84.1698 78.1576 84.3283L78.7055 84.7282C79.3027 85.1642 80.1287 85.0999 80.6512 84.5767L81.8738 83.3527C82.3815 82.8443 82.4574 82.0473 82.0548 81.4521L81.5403 80.6916C81.3925 80.4734 81.5216 80.1776 81.781 80.1378L82.7278 79.9922C83.4597 79.8797 83.9999 79.2501 83.9999 78.5096V76.7786C83.9999 76.0596 83.4897 75.4417 82.7837 75.3057L81.8807 75.1317C81.6235 75.0824 81.5053 74.7811 81.6601 74.5701L82.2268 73.7961C82.6636 73.1993 82.6004 72.3733 82.0777 71.85L80.8552 70.626C80.3468 70.117 79.5486 70.0406 78.9528 70.444L78.1909 70.96C77.9737 71.1073 77.6773 70.978 77.6376 70.7189L77.492 69.7721C77.3795 69.0403 76.7499 68.5 76.0094 68.5H74.2784C73.5589 68.5 72.9408 69.0109 72.8052 69.7175L72.5817 70.883C72.5334 71.134 72.2435 71.2541 72.0316 71.1105L71.0466 70.4438C70.4509 70.0406 69.6529 70.117 69.1445 70.626L67.922 71.85C67.3994 72.3732 67.3361 73.1993 67.7729 73.796L68.3385 74.5685C68.4944 74.781 68.3761 75.0823 68.1204 75.1313L67.216 75.3056C66.5102 75.442 66 76.0598 66 76.7788V78.5098C66 79.2502 66.5403 79.8799 67.2721 79.9924ZM75.1555 72.4705C75.901 73.6424 77.3273 74.2445 78.6907 73.9523C78.3364 75.337 78.9187 76.8247 80.1187 77.6011C78.8524 78.351 78.2115 79.8792 78.5768 81.3133C77.2727 81.0643 75.9153 81.6265 75.1678 82.7258C74.4114 81.4531 72.8778 80.8263 71.4519 81.1915C71.7518 79.7937 71.1121 78.3301 69.8815 77.6012C71.0519 76.844 71.6347 75.4093 71.3331 74.0532C72.8072 74.4661 74.404 73.8049 75.1555 72.4705Z" fill="white"/>
<path d="M75 79C75.828 79 76.4999 78.328 76.4999 77.5C76.4999 76.672 75.828 76 75 76C74.172 76 73.5 76.672 73.5 77.5C73.5 78.328 74.172 79 75 79Z" fill="white"/>
<defs>
<filter id="filter0_d_23_3" x="0.157227" y="0.00830078" width="150.38" height="154.303" filterUnits="userSpaceOnUse" color-interpolation-filters="sRGB">
<feFlood flood-opacity="0" result="BackgroundImageFix"/>
<feColorMatrix in="SourceAlpha" type="matrix" values="0 0 0 0 0 0 0 0 0 0 0 0 0 0 0 0 0 0 127 0" result="hardAlpha"/>
<feOffset dx="1" dy="5"/>
<feGaussianBlur stdDeviation="15"/>
<feComposite in2="hardAlpha" operator="out"/>
<feColorMatrix type="matrix" values="0 0 0 0 0.32549 0 0 0 0 0.843137 0 0 0 0 0.670588 0 0 0 0.5 0"/>
<feBlend mode="normal" in2="BackgroundImageFix" result="effect1_dropShadow_23_3"/>
<feBlend mode="normal" in="SourceGraphic" in2="effect1_dropShadow_23_3" result="shape"/>
</filter>
<linearGradient id="paint0_linear_23_3" x1="32.7724" y1="29.4091" x2="77.2893" y2="117.83" gradientUnits="userSpaceOnUse">
<stop stop-color="#3DECB3"/>
<stop offset="1" stop-color="#1ECD94"/>
</linearGradient>
</defs>
</svg>
